May 03, 2018 9:49:56 AM logger.LoggerFactory getLogger
INFOS: log file created
May 03, 2018 9:49:56 AM logger.LoggerFactory getLogger
INFOS: Logger ready
May 03, 2018 9:49:56 AM RunChatClient launch
INFOS: Creating client to AppledeiMac.local at port 1394 with verbose off ... 
May 03, 2018 9:49:56 AM logger.LoggerFactory getLogger
INFOS: Logger ready
May 03, 2018 9:49:56 AM widgets.AbstractClientFrame <init>
INFOS: AbstractClientFrame : PipedInputStream Created
May 03, 2018 9:49:56 AM widgets.AbstractClientFrame <init>
INFOS: AbstractClientFrame : PipedOutputStream Created
May 03, 2018 9:49:56 AM widgets.AbstractClientFrame <init>
INFOS: AbstractClientFrame : Printwriter to PipedOutputStream Created
May 03, 2018 9:49:56 AM logger.LoggerFactory getLogger
INFOS: Logger ready
May 03, 2018 9:49:56 AM chat.client.ChatClient <init>
INFOS: ChatClient: socket created
May 03, 2018 9:49:56 AM chat.client.ChatClient <init>
INFOS: ChatClient: got client output stream to server
May 03, 2018 9:49:56 AM chat.client.ChatClient <init>
INFOS: ChatClient: sending name to server ... 
May 03, 2018 9:49:56 AM logger.LoggerFactory getLogger
INFOS: Logger ready
May 03, 2018 9:49:56 AM chat.client.UserHandler <init>
INFOS: UserHandler: creating user input buffered reader ... 
May 03, 2018 9:49:56 AM chat.client.UserHandler <init>
INFOS: UserHandler: creating server output print writer ... 
May 03, 2018 9:49:57 AM logger.LoggerFactory getLogger
INFOS: Logger ready
May 03, 2018 9:49:57 AM chat.client.ServerHandler <init>
INFOS: ServerHandler: creating server input reader ... 
May 03, 2018 9:49:57 AM chat.client.ServerHandler <init>
INFOS: ServerHandler: creating user output ... 
May 03, 2018 9:50:03 AM widgets.AbstractClientFrame sendMessage
INFOS: ClientFrame::sendMessage writing out: 1134134
May 03, 2018 9:50:04 AM widgets.AbstractClientFrame sendMessage
INFOS: ClientFrame::sendMessage writing out: 13414
May 03, 2018 9:50:08 AM widgets.ClientFrame$FrameWindowListener windowClosing
INFOS: FrameWindowListener::windowClosing: sending bye ... 
May 03, 2018 9:50:08 AM widgets.ClientFrame$QuitAction actionPerformed
INFOS: QuitAction: sending bye ... 
May 03, 2018 9:50:09 AM widgets.AbstractClientFrame sendMessage
INFOS: ClientFrame::sendMessage writing out: bye
May 03, 2018 9:50:09 AM chat.client.UserHandler run
INFOS: UserHandler: changing run state at the end ... 
